2018,Enero,Unnamed: 2,Unnamed: 3,Unnamed: 4,Unnamed: 5,Febrero,Unnamed: 7,Unnamed: 8,Unnamed: 9,Marzo,Unnamed: 11,Unnamed: 12,Unnamed: 13,Abril,Unnamed: 15,Unnamed: 16,Unnamed: 17,Mayo,Unnamed: 19,Unnamed: 20,Unnamed: 21,Unnamed: 22,Junio,Unnamed: 24,Unnamed: 25,Unnamed: 26,Julio,Unnamed: 28,Unnamed: 29,Unnamed: 30,Unnamed: 31,Agosto,Unnamed: 33,Unnamed: 34,Unnamed: 35,Septiembre,Unnamed: 37,Unnamed: 38,Unnamed: 39,Octubre,Unnamed: 41,Unnamed: 42,Unnamed: 43,Unnamed: 44,Noviembre,Unnamed: 46,Unnamed: 47,Unnamed: 48,Diciembre,Unnamed: 50,Unnamed: 51,Unnamed: 52
# semana,1,2,3,4,5,6,7,8,9,10,11,12,13,14,15,16,17,18,19,20,21,22,23,24,25,26,27,28,29,30,31,32,33,34,35,36,37,38,39,40,41,42,43,44,45,46,47,48,49,50,51,52
Martes,2/1/2018,9/1/2018,16/1/2018,23/1/2018,30/1/2018,6/2/2018,13/2/2018,20/2/2018,27/2/2018,6/3/2018,13/3/2018,20/3/2018,27/3/2018,3/4/2018,10/4/2018,17/4/2018,24/4/2018,1/5/2018,8/5/2018,15/5/2018,22/5/2018,29/5/2018,5/6/2018,12/6/2018,19/6/2018,26/6/2018,3/7/2018,10/7/2018,17/7/2018,24/7/2018,31/7/2018,7/8/2018,14/8/2018,21/8/2018,28/8/2018,4/9/2018,11/9/2018,18/9/2018,25/9/2018,2/10/2018,9/10/2018,16/10/2018,23/10/2018,30/10/2018,6/11/2018,13/11/2018,20/11/2018,27/11/2018,4/12/2018,11/12/2018,18/12/2018,25/12/2018
Ventas en CxC + Inventarios,"$4,150,845.28","$2,885,890.78","$3,239,068.35","$3,308,372.15","$3,772,917.58","$3,271,368.71","$3,253,935.27","$3,325,700.66","$3,207,336.19","$3,246,934.37", ,"$2,775,770.74", ,"$2,920,421.55",$475245.03, , , , ,"$2,412,815.69","$2,699,018.47","$3,085,385.47","$4,040,214.73","$4,074,978.40","$4,232,688.23","$4,278,412.33","$4,278,375.21","$3,096,202.81","$3,315,526.19","$3,366,511.48", , , , , , , , , , , , , , , , , , , , , , 
Banco INB 163,"$104,624.59","$1,381,317.26","$436,992.92","$336,810.98","$216,491.63","$525,547.42","$695,892.47","$645,403.81","$469,274.79","$543,440.28", ,"$781,991.79", ,"$178,064.93",$0.00, , , , ,"$145,747.73","$50,762.38","$80,228.49","$11,162.54","$52,831.10","$431,278.75","$154,417.79","$474,417.79","$905,553.68","$689,847.79","$689,847.79",, , , , , , , , , , , , , , , , , , , , , 
Banco BBVA, , , , , , , , , , , , , , , , , , , ,"$15,000.00","$15,000.00","$15,000.00",$0.00,$0.00,$0.00,$0.00,$0.00,"$15,000.00","$15,000.00","$15,000.00",, , , , , , , , , , , , , , , , , , , , , 
Deuda Flash, , , , , , , , , , , , , , , , , , , ,"$6,180.00","$6,180.00",$0.00,$0.00,$0.00,$0.00,$0.00,$0.00,"$56,485.40","$109,522.78","$109,522.78",, , , , , , , , , , , , , , , , , , , , , 
Deuda CoinHub, , , , , , , , , , , , , , , , , , , ,"$783,478.00","$783,478.00","$784,027.00","$784,027.00","$784,027.00","$784,027.00","$784,027.00","$784,027.00","$784,576.00","$784,576.00","$784,576.00",, , , , , , , , , , , , , , , , , , , , , 
Total entradas,"$4,255,469.87","$4,267,208.04","$3,676,061.27","$3,645,183.13","$3,989,409.21","$3,796,916.13","$3,949,827.74","$3,971,104.47","$3,676,610.98","$3,790,374.65", ,"$3,557,762.53", ,"$3,098,486.48",$475245.03, , , , ,"$3,357,041.42","$3,548,258.85","$3,964,640.96","$4,835,404.27","$4,911,836.50","$5,447,993.98","$5,216,857.12","$5,536,820.00","$4,801,332.49","$4,804,949.98","$4,855,935.27",, , , , , , , , , , , , , , , , , , , , , 
Capital Deuda,"$1,825,000.00","$1,825,000.00","$1,825,000.00","$1,825,000.00","$1,825,000.00","$1,825,000.00","$1,825,000.00","$1,825,000.00","$1,825,000.00","$1,825,000.00", ,"$1,825,000.00", ,"$1,825,000.00",$1825000.00, , , , ,"$1,730,000.00","$1,730,000.00","$2,030,000.00","$2,063,527.18","$2,333,527.18","$2,400,000.00","$2,400,000.00","$2,720,000.00","$2,720,000.00","$2,650,000.00","$2,650,000.00",, , , , , , , , , , , , , , , , , , , , , 
Intereses a hoy,"$70,035.73","$73,827.78","$77,619.83","$71,911.88","$71,449.51","$73,210.11","$75,988.94","$79,567.77","$82,635.34","$86,214.18", ,"$93,883.10", ,"$85,766.63",$87838.33, , , , ,"$66,151.67","$69,111.67","$43,791.67","$47,361.39","$51,936.11","$55,502.15","$56,683.48","$59,046.15","$48,635.06","$53,421.11","$53,421.11",, , , , , , , , , , , , , , , , , , , , , 
Monto deuda,"$1,895,035.73","$1,898,827.78","$1,902,619.83","$1,896,911.88","$1,896,449.51","$1,898,210.11", ,"$1,904,567.77","$1,907,635.34","$1,911,214.18", ,"$1,918,883.10", ,"$1,910,766.63",$1912838.33, , , , ,"$1,796,151.67","$1,799,111.67","$2,073,791.67","$2,110,888.57","$2,385,463.29","$2,455,502.15","$2,456,683.48","$2,779,046.15","$2,768,635.06","$2,703,421.11","$2,703,421.11",, , , , , , , , , , , , , , , , , , , , , 
CxP COM DAR,"$388,722.28","$366,976.93","-$382,025.05","-$381,959.59","-$50,432.96","-$56,167.92","-$85,816.47","$63,420.72","$309,973.84","$343,123.53", ,"$203,395.66", ,"$204,506.48",$72059.85, , , , ,"$882,750.90","$1,030,888.78","$1,083,658.63","$1,560,893.52","$1,442,936.96","$1,554,686.03","$1,607,772.15","$1,557,071.92","$1,100,483.74","$1,060,565.87","$1,060,565.87",, , , , , , , , , , , , , , , , , , , , , 
CxP Fabricantes,"$968,986.59","$968,986.59","$710,783.35","$423,235.26","$325,495.83","$440,641.49","$597,253.45","$798,856.69","$509,668.89","$605,394.36", ,"$372,755.04", ,"$441,111.45",$0.00, , , , ,"$145,574.95","$220,205.73","$242,224.75","$375,070.02","$386,114.90","$484,306.58","$384,821.13","$384,821.13","$500,951.55","$134,939.17","$134,939.17",, , , , , , , , , , , , , , , , , , , , , 
Super habit/ deficit a hoy,"$1,002,725.28","$1,032,416.75","$1,444,683.14","$1,706,995.59","$1,817,896.83","$1,514,232.45","$1,537,401.82","$1,204,259.28","$949,332.91","$930,642.58", ,"$1,435,483.76", ,"$983,213.37",$-1509653.15, , , , ,"$532,563.90","$498,052.68","$564,965.91","$788,552.16","$697,321.36","$953,499.23","$767,580.36","$815,880.80","$431,262.15","$906,023.82","$957,009.12",, , , , , , , , , , , , , , , , , , , , , 
Super habit/ deficit total,"$895,203.50","$928,687.02","$1,344,745.47","$1,610,349.96","$1,705,271.60","$1,403,367.82","$1,429,316.02","$1,099,752.32","$847,893.51","$832,782.01", ,"$1,345,292.12", ,"$443,793.81",$-1570214.82, , , , ,"$421,115.57","$389,564.34","$395,157.57","$655,840.73","$463,984.65","$691,294.71","$506,557.18","$518,820.29","$224,357.21","$704,604.93","$755,590.23",, , , , , , , , , , , , , , , , , , , , , 
Hora de entrega,12:00,12:00,12:00,12:00,12:00,12:00,12:00,12:00,12:00,12:00,12:00,12:00,12:00,12:00,12:00,12:00,12:00,12:00,12:00,17:19,12:00,12:00,12:00,12:00,12:00,12:00,12:00,12:00,12:00,12:00,12:00,12:00,12:00,12:00,12:00,12:00,12:00,12:00,12:00,12:00,12:00,12:00,12:00,12:00,12:00,12:00,12:00,12:00,12:00,12:00,12:00,12:00
Puntuación, ,10,0,0,0,0,0,0,0,0,0,0,0,0,0,0,0,0,0,0,0,0,0,0,0,0,0,0,0,0,0,0,0,0,0,0,0,0,0,0,0,0,0,0,0,0,0,0,0,0,0,0